<svg xmlns="http://www.w3.org/2000/svg" width="14" height="14" viewBox="0 0 14 14">
    <g fill="none" fill-rule="evenodd">
        <path fill="#D9D9D9" d="M12.444 14c.858 0 1.556-.698 1.556-1.556V1.555C14 .698 13.302 0 12.444 0H1.556C.698 0 0 .698 0 1.555v10.889C0 13.302.698 14 1.556 14h10.888z"/>
        <text fill="#FFF" font-family="Roboto-Regular, Roboto" font-size="15">
            <tspan x="3" y="20">=</tspan>
        </text>
    </g>
</svg>
