<svg xmlns="http://www.w3.org/2000/svg" width="15" height="12" viewBox="0 0 15 12">
    <g fill="none" fill-rule="evenodd">
        <path fill="#D9D9D9" d="M8.374 6.4c1.604 0 2.909-1.255 2.909-2.8 0-1.544-1.305-2.8-2.91-2.8C6.77.8 5.466 2.056 5.466 3.6c0 1.545 1.304 2.8 2.909 2.8M8.374 7.1c-3.426 0-5.818 1.727-5.818 4.2v.7h11.636v-.7c0-2.473-2.393-4.2-5.818-4.2"/>
        <path fill="#D0021B" d="M4.404 1.1h-4v1.4h4z"/>
    </g>
</svg>
